{
    "KPlugin": {
        "Authors": [
            {
                "Email": "jgrulich@redhat.com",
                "Name": "Jan Grulich",
                "Name[ar]": "Jan Grulich",
                "Name[az]": "Jan Grulich",
                "Name[bg]": "Jan Grulich",
                "Name[ca@valencia]": "Jan Grulich",
                "Name[ca]": "Jan Grulich",
                "Name[cs]": "Jan Grulich",
                "Name[de]": "Jan Grulich",
                "Name[el]": "Jan Grulich",
                "Name[en_GB]": "Jan Grulich",
                "Name[eo]": "Jan Grulich",
                "Name[es]": "Jan Grulich",
                "Name[eu]": "Jan Grulich",
                "Name[fi]": "Jan Grulich",
                "Name[fr]": "Jan Grulich",
                "Name[gl]": "Jan Grulich",
                "Name[he]": "יאן גרוליך",
                "Name[hu]": "Jan Grulich",
                "Name[ia]": "Jan Grulich",
                "Name[is]": "Jan Grulich",
                "Name[it]": "Jan Grulich",
                "Name[ja]": "Jan Grulich",
                "Name[ka]": "Jan Grulich",
                "Name[ko]": "Jan Grulich",
                "Name[lt]": "Jan Grulich",
                "Name[lv]": "Jan Grulich",
                "Name[nl]": "Jan Grulich",
                "Name[nn]": "Jan Gruhlich",
                "Name[pl]": "Jan Grulich",
                "Name[pt]": "Jan Grulich",
                "Name[pt_BR]": "Jan Grulich",
                "Name[ro]": "Jan Grulich",
                "Name[ru]": "Jan Grulich",
                "Name[sk]": "Jan Grulich",
                "Name[sl]": "Jan Grulich",
                "Name[sv]": "Jan Grulich",
                "Name[ta]": "ஜான் குரூலிச்",
                "Name[tr]": "Jan Grulich",
                "Name[uk]": "Jan Grulich",
                "Name[x-test]": "xxJan Grulichxx",
                "Name[zh_CN]": "Jan Grulich",
                "Name[zh_TW]": "Jan Grulich"
            }
        ],
        "Category": "VPNService",
        "Description": "IPsec, IKEv1, IKEv2 based VPN",
        "Description[ar]": "شبكات تعتمد على IPsec و IKEv1 و IKEv2",
        "Description[az]": "IPsec, IKEv1, IKEv2 əsaslı VPN",
        "Description[bg]": "IPsec, IKEv1, IKEv2 базирани VPN",
        "Description[ca@valencia]": "VPN basada en IKEv1, IKEv2 sobre IPsec",
        "Description[ca]": "VPN basada en IKEv1, IKEv2 sobre IPsec",
        "Description[cs]": "VPN založena na IPsec, IKEv1, IKEv2",
        "Description[de]": "VPN basierend auf IPsec, IKEv1, IKEv2",
        "Description[el]": "VPN βασισμένο σε IPsec, IKEv1, IKEv2",
        "Description[en_GB]": "IPsec, IKEv1, IKEv2 based VPN",
        "Description[eo]": "VPN bazita sur IPsec, IKEv1, IKEv2",
        "Description[es]": "VPN basada en IPsec, IKEv1 e IKEv2",
        "Description[eu]": "IPsec, IKEv1, IKEv2 oinarridun VPN",
        "Description[fi]": "IPsec-, IKEv1-, IKEv2-pohjainen VPN",
        "Description[fr]": "IPsec, IKEv1, IKEv2 reposant sur un VPN",
        "Description[gl]": "VPN baseada en IPsec, IKEv1 e IKEv2.",
        "Description[he]": "VPN מבוסס IPsec,‏ IKEv1,‏ IKEv2",
        "Description[hu]": "IPsec-, IKEv1-, IKEv2-alapú VPN",
        "Description[ia]": "VPN basate sur IPsec, IKEv1, IKEv2",
        "Description[is]": "IPsec-, IKEv1-, IKEv2-afleidd VPN",
        "Description[it]": "VPN basata su IPsec, IKEv1, IKEv2",
        "Description[ja]": "IPsec, IKEv1, IKEv2 ベースの VPN",
        "Description[ka]": "IPsec, IKEv1, IKEv2-ზე დაფუძნებული VPN",
        "Description[ko]": "IPSec, IKEv1, IKEv2 기반 VPN",
        "Description[lt]": "IPsec, IKEv1, IKEv2 pagrįstas VPN",
        "Description[lv]": "Uz „IPsec“, „IKEv1“, „IKEv2“ balstīts VPN",
        "Description[nl]": "Op IPsec, IKEv1, IKEv2 gebaseerde VPN",
        "Description[nn]": "IPsec-/IKEv1-/IKEv2-basert VPN",
        "Description[pa]": "IPsec, IKEv1, IKEv2 ਅਧਾਰਿਤ VPN",
        "Description[pl]": "VPN oparty na IPsec, IKEv1, IKEv2",
        "Description[pt]": "VPN baseada em IPsec, IKEv1, IKEv2",
        "Description[pt_BR]": "VPN baseada em IPsec, IKEv1, IKEv2",
        "Description[ru]": "VPN на основе IPsec, IKEv1, IKEv2",
        "Description[sk]": "VPN založená na IPsec, IKEv1, IKEv2",
        "Description[sl]": "Na IPsec, IKEv1, IKEv2 temelječ VPN",
        "Description[sv]": "IPsec, IKEv1, IKEv2-baserad VPN",
        "Description[tr]": "IPsec, IKEv1, IKEv2 tabanlı VPN",
        "Description[uk]": "VPN на основі IPsec, IKEv1, IKEv2",
        "Description[x-test]": "xxIPsec, IKEv1, IKEv2 based VPNxx",
        "Description[zh_CN]": "基于 IPsec、IKEv1、IKEv2 的 VPN",
        "Description[zh_TW]": "基於 IPsec, IKEv1, IKEv2 的 VPN",
        "EnabledByDefault": false,
        "Icon": "",
        "License": "GPL",
        "Name": "IPsec based VPN (libreswan)",
        "Name[ar]": "شبكة خاصة افتراضية بالاعتماد على IPsec بواسطة (libreswan)",
        "Name[az]": "İPsec əsaslı VPN (libreswan)",
        "Name[bg]": "IPsec базирани VPN (libreswan)",
        "Name[ca@valencia]": "VPN basada en IPsec (libreswan)",
        "Name[ca]": "VPN basada en IPsec (libreswan)",
        "Name[cs]": "VPN založena na IPsec (libreswan)",
        "Name[de]": "VPN basierend auf IPsec (libreswan)",
        "Name[el]": "VPN βασισμένο σε IPsec (libreswan)",
        "Name[en_GB]": "IPsec based VPN (libreswan)",
        "Name[eo]": "VPN bazita sur IPsec (libreswan)",
        "Name[es]": "VPN basada en IPsec (libreswan)",
        "Name[eu]": "IPsec oinarridun  VPN (libreswan)",
        "Name[fi]": "IPsec-pohjainen VPN (libreswan)",
        "Name[fr]": "VPN utilisant « IPsec » (libreswan)",
        "Name[gl]": "VPN baseada en IPsec (libreswan)",
        "Name[he]": " VPN מבוסס IPsec‏ (libreswan)",
        "Name[hu]": "IPsec-alapú VPN (libreswan)",
        "Name[ia]": "VPN basate sur IPsec (libreswan)",
        "Name[is]": "IPsec-afleitt VPN (libreswan)",
        "Name[it]": "VPN basata su IPsec (libreswan)",
        "Name[ja]": "IPsec ベースの VPN (libreswan)",
        "Name[ka]": "IPsec -ზე დაფუძნებული VPN (libreswan)",
        "Name[ko]": "IPSec 기반 VPN(libreswan)",
        "Name[lt]": "IPsec pagrįstas VPN (libreswan)",
        "Name[lv]": "„IPsec“ balstīts VPN („libreswan“)",
        "Name[nl]": "Op IPsec gebaseerde VPN (libreswan)",
        "Name[nn]": "IPsec-basert VPN (libreswan)",
        "Name[pa]": "IPsec ਅਧਾਰਿਤ VPN (libreswan)",
        "Name[pl]": "VPN oparty na IPsec (libreswan)",
        "Name[pt]": "VPN baseada em IPsec (libreswan)",
        "Name[pt_BR]": "VPN baseada em IPsec (libreswan)",
        "Name[ru]": "VPN на основе IPsec (libreswan)",
        "Name[sk]": "VPN založená na IPsec (openswan)",
        "Name[sl]": "Na IPsec temelječ VPN (libreswan)",
        "Name[sv]": "IPsec-baserad VPN (libreswan)",
        "Name[tr]": "IPsec tabanlı VPN (libreswan)",
        "Name[uk]": "VPN на основі IPsec (libreswan)",
        "Name[x-test]": "xxIPsec based VPN (libreswan)xx",
        "Name[zh_CN]": "基于 IPsec 的 VPN (libreswan)",
        "Name[zh_TW]": "基於 IPsec 的 VPN (libreswan)",
        "Version": "0.1",
        "Website": ""
    },
    "X-NetworkManager-Services": "org.freedesktop.NetworkManager.libreswan"
}
